module github.com/betauia/beetroot

go 1.16

require (
	github.com/gin-gonic/gin v1.8.2
	github.com/mattn/go-isatty v0.0.17 // indirect
	github.com/modern-go/concurrent v0.0.0-20180306012644-bacd9c7ef1dd // indirect
	github.com/spf13/viper v1.8.1
	github.com/ugorji/go/codec v1.2.8 // indirect
	golang.org/x/crypto v0.4.0 // indirect
)
